…
count(lsample,Occupation,sort =TRUE)

## # A tibble: 67 x 2
##                  Occupation     n
##                      <fctr> <int>
##  1                    Other  4168
##  2             Professional  2794
##  3      Computer Programmer   919
##  4                Executive   779
##  5                  Analyst   721
##  6           Accountant/CPA   653
##  7 Administrative Assistant   636
##  8                  Teacher   615
##  9                 Clerical   476
## 10       Sales - Commission   427
## # ... with 57 more rows
…
